country,population,capital,flag_col,size_km2,islands
Austria,8902600,Vienna,2,83879,0
Germany,83149300,Berlin,3,357386,50
Croatia,4076246,Zagreb,3,56594,718
Chile,17574003,Santiago,3,756950,134
Brazil,210147125,Brasilia,3,8515767,21
Venezuela,28887118,Caracas,3,916445,300
